{
    "swagger": "2.0",
    "info": {
        "version": "1.0.0",
        "title": "Breast Cancer API",
        "description": "Demonstration/Documentation"
    },
    "tags": [
        {
            "name": "user",
            "description": "Everything About Users"
        },
        {
            "name": "address",
            "description": "Everything About Address"
        },
        {
            "name": "log",
            "description": "Everything About Logs"
        },
        {
            "name": "role",
            "description": "Everything About Roles"
        },
        {
            "name": "request",
            "description": "Everything About Request"
        }
    ],
    "paths": {
        "/api/1.0/login": {
            "get": {
                "tags": [
                    "user"
                ],
                "description": "Authentication is granted",
                "responses": {
                    "200": {
                        "description": "Successful response"
                    }
                }
            },
            "post": {
                "tags": [
                    "user"
                ],
                "description": "Login Authentication",
                "parameters": [
                   
                    {
                        "name":"login",
                        "in":"body",
                        "type":"string",
                        "description":"user account information",
                        "schema": {
                            "$ref": "#/definitions/login"
                        },
                        "required":true
                    }
                ],
                "responses": {
                    "200": {
                        "description": "Successful response"
                    }
                }
            }
        },
        "/api/1.0/logout": {
            "get": {
                "tags": [
                    "user"
                ],
                "description": "Logout User",
                "responses": {
                    "200": {
                        "description": "Successful response"
                    }
                }
            }
        },
        "/api/1.0/user": {
            "get": {
                "tags": [
                    "user"
                ],
                "description": "Get all list of Users\n",
                "responses": {
                    "200": {
                        "description": "Successful response",
                        "schema": {
                            "title": "ArrayOfUsers",
                            "type": "array",
                            "items": {
                                "$ref":"#/definitions/user"
                            }
                        }
                    }
                }
            },
            "post": {
                "tags": [
                    "user"
                ],
                "description": "Save Users Information\n",
                "parameters": [
                    {
                        "name": "user",
                        "in": "body",
                        "description": "Users fields you want to post",
                        "schema": {
                            "$ref": "#/definitions/userpost"
                        },
                        "required": true
                    }
                ],
                "responses": {
                    "200": {
                        "description": "Successful response"
                        
                    }
                }
            }
        },
        "/api/1.0/user/{userID}": {
            "get": {
                "tags": [
                    "user"
                ],
                "description": "Get specific User",
                "parameters": [
                    {
                        "name": "userID",
                        "in": "path",
                        "type": "string",
                        "description": "ID of the User Account",
                        "required": true
                    }
                ],
                "responses": {
                    "200": {
                        "description": "Successful response",
                        "schema": {
                            "title": "ArrayOfUsers",
                            "type": "array",
                            "items": {
                                "$ref":"#/definitions/user"
                            }
                        }
                    }
                }
            },
            "put": {
                "tags": [
                    "user"
                ],
                "description": "Update specific User",
                "parameters": [
                    {
                        "name": "userID",
                        "in": "path",
                        "type": "string",
                        "description": "ID of the User Account",
                        "required": true
                    },
                    {
                        "name": "user",
                        "in": "body",
                        "description": "Users fields you want to post",
                        "schema": {
                            "$ref": "#/definitions/userpost"
                        },
                        "required": true
                    }
                ],
                "responses": {
                    "200": {
                        "description": "Successful response"
                    }
                }
            }
        },
        "/api/1.0/user/uploadImage/{userID}": {
            "put": {
                "tags": [
                    "user"
                ],
                "description": "uploading image for specific user",
                "consumes": [
                    "multipart/form-data"
                ],
                "produces": [
                    "application/json"
                ],
                "parameters": [
                    {
                        "name": "userID",
                        "in": "path",
                        "description": "ID of pet to update",
                        "required": true,
                        "type": "integer",
                        "format": "int64"
                    },
                    {
                        "name": "file",
                        "in": "formData",
                        "description": "file to upload",
                        "required": false,
                        "type": "file"
                    }
                ],
                "responses": {
                    "200": {
                        "description": "Successful response"
                    }
                }
            }
        },
        "/api/1.0/country": {
            "get": {
                "tags": [
                    "address"
                ],
                "description": "Get all list of country",
                "responses": {
                    "200": {
                        "description": "Successful response",
                        "schema": {
                            "title": "ArrayOfCountry",
                            "type": "array",
                            "items": {
                                 "$ref": "#/definitions/countrypost"
                            }
                        }
                    }
                }
            },
            "post": {
                "tags": [
                    "address"
                ],
                "description": "Save country",
                "parameters": [
                    {
                        "name": "country",
                        "in": "body",
                        "description": "Country fields you want to post",
                        "required": true,
                        "schema": {
                            "$ref": "#/definitions/country"
                        }
                    }
                ],
                "responses": {
                    "200": {
                        "description": "Successful response",
                        "schema": {
                            "title": "ArrayOfCountry",
                            "type": "array",
                            "items": {
                                "$ref": "#/definitions/countrypost" 
                            }
                        }
                    }
                }
            }
        },
        "/api/1.0/country/{countryID}": {
            "get": {
                "tags": [
                    "address"
                ],
                "description": "Get specific Country",
                "parameters": [
                    {
                        "name": "countryID",
                        "in": "path",
                        "type": "string",
                        "description": "ID of the country",
                        "required": true
                    }
                ],
                "responses": {
                    "200": {
                        "description": "Successful response",
                        "schema": {
                            "title": "ArrayOfcountry",
                            "type": "array",
                            "items": {
                              "$ref": "#/definitions/countrypost" 
                            }
                        }
                    }
                }
            },
            "put": {
                "tags": [
                    "address"
                ],
                "description": "Update specific country",
                "parameters": [
                    {
                        "name": "countryID",
                        "in": "path",
                        "type": "string",
                        "description": "ID of the Address",
                        "required": true
                    },
                    {
                        "name": "country",
                        "in": "body",
                        "description": "country fields you want to post",
                        "schema": {
                            "$ref": "#/definitions/country"
                        }
                    }
                ],
                "responses": {
                    "200": {
                        "description": "Successful response",
                        "schema": {
                            "title": "ArrayOfCountry",
                            "type": "array",
                            "items": {
                               "$ref": "#/definitions/countrypost" 
                            }
                        }
                    }
                }
            }
        },
        "/api/1.0/state/": {
            "get": {
                "tags": [
                    "address"
                ],
                "description": "Get list of states in State(collection).",
                "responses": {
                    "200": {
                        "description": "Successful response",
                        "schema": {
                            "title": "ArrayofState",
                            "type": "array",
                            "items": {
                                "$ref": "#/definitions/statepost" 
                            }
                        }
                    }
                }
            }
        },
        "/api/1.0/state/{countryID}": {
            "get": {
                "tags": [
                    "address"
                ],
                "description": "Get specific list on state base on country ID.",
                "parameters": [
                    {
                        "name": "countryID",
                        "in": "path",
                        "type": "string",
                        "description": "ID of the Country(Collection)",
                        "required": true
                    }
                ],
                "responses": {
                    "200": {
                        "description": "Successful response",
                        "schema": {
                            "title": "ArrayofState",
                            "type": "array",
                            "items": {
                                 "$ref": "#/definitions/statepost" 
                            }
                        }
                    }
                }
            },
            "post": {
                "tags": [
                    "address"
                ],
                "description": "Save State",
                "parameters": [
                    {
                        "name": "countryID",
                        "in": "path",
                        "type": "string",
                        "description": "ID of the Country(Collection)",
                        "required": true
                    },
                    {
                        "name": "state",
                        "in": "body",
                        "description": "State fields you want to post",
                        "schema": {
                            "$ref": "#/definitions/state"
                        },
                        "required": true
                    }
                ],
                "responses": {
                    "200": {
                        "description": "Successful response",
                        "schema": {
                            "title": "ArrayofState",
                            "type": "array",
                            "items": {
                              "$ref": "#/definitions/statepost"
                            }
                        }
                    }
                }
            }
        },
        "/api/1.0/sp_state/{stateID}": {
            "get": {
                "tags": [
                    "address"
                ],
                "description": "Get Specific state base on stateID",
                "parameters": [
                    {
                        "name": "stateID",
                        "in": "path",
                        "type": "string",
                        "description": "ID of the State(Collection)",
                        "required": true
                    }
                ],
                "responses": {
                    "200": {
                        "description": "Successful response",
                        "schema": {
                            "title": "ArrayofState",
                            "type": "array",
                            "items": {
                                "$ref": "#/definitions/statepost"
                            }
                        }
                    }
                }
            },
            "put": {
                "tags": [
                    "address"
                ],
                "description": "Update specific state base on stateID",
                "parameters": [
                    {
                        "name": "stateID",
                        "in": "path",
                        "type": "string",
                        "description": "ID of the State(Collection)",
                        "required": true
                    },
                    {
                        "name": "state",
                        "in": "body",
                        "description": "State fields you want to post",
                        "schema": {
                            "$ref": "#/definitions/state"
                        },
                        "required": true
                    }
                ],
                "responses": {
                    "200": {
                        "description": "Successful response",
                        "schema": {
                            "title": "ArrayofState",
                            "type": "array",
                            "items": {
                                "$ref": "#/definitions/statepost"
                            }
                        }
                    }
                }
            }
        },
        "/api/1.0/location/{countryID}/{stateID}": {
            "post": {
                "tags": [
                    "address"
                ],
                "description": "Save Location",
                "parameters": [
                    {
                        "name": "countryID",
                        "in": "path",
                        "type": "string",
                        "description": "ID of the Country(Collection)",
                        "required": true
                    },
                    {
                        "name": "stateID",
                        "in": "path",
                        "type": "string",
                        "description": "ID of the State(Collection)",
                        "required": true
                    },
                    {
                        "name": "location",
                        "in": "body",
                        "description": "Location fields you want to post",
                        "schema": {
                            "$ref": "#/definitions/location"
                        },
                        "required": true
                    }
                ],
                "responses": {
                    "200": {
                        "description": "Successful response",
                        "schema": {
                            "title": "ArrayOfLogs",
                            "type": "array",
                            "items": {
                                "$ref": "#/definitions/locationpost"
                            }
                        }
                    }
                }
            }
        },
        "/api/1.0/location/{stateID}": {
            "get": {
                "tags": [
                    "address"
                ],
                "description": "get specific location base on stateID.",
                "parameters": [
                    {
                        "name": "stateID",
                        "in": "path",
                        "type": "string",
                        "description": "ID of the State(Collection)",
                        "required": true
                    }
                ],
                "responses": {
                    "200": {
                        "description": "Successful response",
                        "schema": {
                            "title": "ArrayOfLocation",
                            "type": "array",
                            "items": {
                               "$ref": "#/definitions/locationpost"
                            }
                        }
                    }
                }
            }
        },
        "/api/1.0/location/": {
            "get": {
                "tags": [
                    "address"
                ],
                "description": "get all location inside the Location(Collection).",
                "responses": {
                    "200": {
                        "description": "Successful response",
                        "schema": {
                            "title": "ArrayOfLocation",
                            "type": "array",
                            "items": {
                                 "$ref": "#/definitions/locationpost"
                            }
                        }
                    }
                }
            }
        },
        "/api/1.0/specificlocation/{locationID}": {
            "get": {
                "tags": [
                    "address"
                ],
                "description": "get specific location base on locationID.",
                "parameters": [
                    {
                        "name": "locationID",
                        "in": "path",
                        "type": "string",
                        "description": "ID of the Location(Collection)",
                        "required": true
                    }
                ],
                "responses": {
                    "200": {
                        "description": "Successful response",
                        "schema": { 
                            "$ref": "#/definitions/locationpost"
                        }
                    }
                }
            },
            "put": {
                "tags": [
                    "address"
                ],
                "description": "Update specific location base on locationID.",
                "parameters": [
                    {
                        "name": "locationID",
                        "in": "path",
                        "type": "string",
                        "description": "ID of the Location(Collection)",
                        "required": true
                    },
                    {
                        "name": "location",
                        "in": "body",
                        "description": "location fields you want to Update",
                        "schema": {
                            "$ref": "#/definitions/location"
                        }
                    }
                ],
                "responses": {
                    "200": {
                        "description": "Successful response",
                        "schema": {
                            "title": "ArrayOfLocation",
                            "type": "array",
                            "items": {
                                "$ref": "#/definitions/locationpost"
                            }
                        }
                    }
                }
            }
        },
        "/api/1.0/address": {
            "get": {
                "tags": [
                    "address"
                ],
                "description": "Get all list of address(country,state,locatio) base on thier respective relationships.",
                "responses": {
                    "200": {
                        "description": "Successful response",
                        "schema": {
                            "title": "ArrayOfAddress",
                            "type": "array",
                            "items": {
                                "$ref": "#/definitions/addressview"
                            }
                        }
                    }
                }
            }
        },
        "/api/1.0/log": {
            "get": {
                "tags": [
                    "log"
                ],
                "description": "Get all Logs report",
                "responses": {
                    "200": {
                        "description": "Successful response",
                        "schema": {
                            "title": "ArrayOfLogs",
                            "type": "array",
                            "items": {
                                "$ref": "#/definitions/logspostview"
                            }
                        }
                    }
                }
            }
        },
        "/api/1.0/log/{userID}": {
            "get": {
                "tags": [
                    "log"
                ],
                "description": "Get specific Logs of user",
                "parameters": [
                    {
                        "name": "userID",
                        "in": "path",
                        "type": "string",
                        "description": "ID of the User Acount(Collection)",
                        "required": true
                    }
                ],
                "responses": {
                    "200": {
                        "description": "Successful response",
                        "schema": {
                            "title": "ArrayOfLogs",
                            "type": "array",
                            "items": {
                                "$ref": "#/definitions/logspostview"
                            }
                        }
                    }
                }
            },
            "post": {
                "tags": [
                    "log"
                ],
                "description": "Save Logs of Specific User.",
                "parameters": [
                    {
                        "name": "userID",
                        "in": "path",
                        "type": "string",
                        "description": "ID of the User Acount(Collection)",
                        "required": true
                    },
                    {
                        "name": "log",
                        "in": "body",
                        "description": "log fields you want to post ,to try object in trantype \"desc\":\"value\",in page \"name\":\"value\"",
                        "schema": {
                            "$ref": "#/definitions/logs"
                        }
                    }
                ],
                "responses": {
                    "200": {
                        "description": "Successful response",
                        "schema": {
                            "title": "ArrayOfLogs",
                            "type": "array",
                            "items": {
                                 "$ref": "#/definitions/logspost"
                            }
                        }
                    }
                }
            }
        },
        "/api/1.0/roles": {
            "get": {
                "tags": [
                    "role"
                ],
                "description": "Get all roles",
                "responses": {
                    "200": {
                        "description": "Successful response",
                        "schema": {
                            "title": "ArrayOfRoles",
                            "type": "array",
                            "items": {
                               "$ref": "#/definitions/rolespost"
                            }
                        }
                    }
                }
            },
            "post": {
                "tags": [
                    "role"
                ],
                "description": "Save Roles",
                "parameters": [
                    {
                        "name": "Roles",
                        "in": "body",
                        "description": "Roles fields you want to post",
                        "schema": {
                            "$ref": "#/definitions/roles"
                        },
                        "required": true
                    }
                ],
                "responses": {
                    "200": {
                        "description": "Successful response",
                        "schema": {
                            "title": "ArrayOfRoles",
                            "type": "array",
                            "items": {
                               "$ref": "#/definitions/rolespost"
                            }
                        }
                    }
                }
            }
        },
        "/api/1.0/roles/{rolesID}": {
            "get": {
                "tags": [
                    "role"
                ],
                "description": "Get specific User",
                "parameters": [
                    {
                        "name": "rolesID",
                        "in": "path",
                        "type": "string",
                        "description": "ID of the Roles collection",
                        "required": true
                    }
                ],
                "responses": {
                    "200": {
                        "description": "Successful response",
                        "schema": {
                            "title": "ArrayOgRoles",
                            "type": "array",
                            "items": {
                              "$ref": "#/definitions/rolespost"
                            }
                        }
                    }
                }
            },
            "put": {
                "tags": [
                    "role"
                ],
                "description": "Update specific Roles",
                "parameters": [
                    {
                        "name": "rolesID",
                        "in": "path",
                        "type": "string",
                        "description": "ID of the Roles collection",
                        "required": true
                    },
                    {
                        "name": "roles",
                        "in": "body",
                        "description": "Roles fields you want to post",
                        "schema": {
                            "$ref": "#/definitions/roles"
                        },
                        "required": true
                    }
                ],
                "responses": {
                    "200": {
                        "description": "Successful response",
                        "schema": {
                            "title": "ArrayOgRoles",
                            "type": "array",
                            "items": {
                                "$ref": "#/definitions/rolespost"
                            }
                        }
                    }
                }
            }
        },
        "/api/1.0/request/{userID}/{approve_tag}": {
            "get": {
                "tags": [
                    "request"
                ],
                "description": "Get all list of request by the specific user",
                "parameters": [
                    {
                        "name": "userID",
                        "in": "path",
                        "type": "string",
                        "description": "ID of the User Account",
                        "required": true
                    },
                    {
                        "name": "approve_tag",
                        "in": "path",
                        "type": "string",
                        "description": "Value of the approve_tag if YES or NO",
                        "required": true
                    }
                ],
                "responses": {
                    "200": {
                        "description": "Successful response",
                        "schema": {
                            "title": "ArrayOfRequest",
                            "type": "array",
                            "items": {
                                "$ref": "#/definitions/requestview"
                          }      
                    } 
                } }
            }
        },
        "/api/1.0/request/{userID}": {
            "post": {
                "tags": [
                    "request"
                ],
                "consumes": [
                    "application/json",
                    "multipart/form-data",
                    "x-www-form-encoded"
                ],
                "produces": [
                    "application/json"
                ],
                "description": "Save Request of Specific User based on userID",
                "parameters": [
                    {
                        "name": "userID",
                        "in": "path",
                        "type": "string",
                        "description": "userID of the User Account",
                        "required": true
                    },
                    {
                        "name":"purpose",
                        "paramType":"form",
                        "type":"string",
                        "description":"purpose of the request you want to post",
                        "required":true
                    },
                    {
                        "name":"filters",
                        "paramType":"form",
                        "type":"string",
                        "description":"the filters description you want to post",
                        "required":false
                    },
                    {
                        "name":"valid_until",
                        "paramType":"form",
                        "type":"string",
                        "description":"request validaty date",
                        "required":false
                    },
                    {
                        "name": "test_sets",
                        "in": "formData",
                        "description": "File to upload for Test sets",
                        "required": false,
                        "type": "file"
                    },
                    {
                        "name": "images",
                        "in": "formData",
                        "description": "File to upload for Images",
                        "required": false,
                        "type": "file"
                    },
                    {
                        "name": "reading",
                        "in": "formData",
                        "description": "File to upload for Readings",
                        "required": false,
                        "type": "file"
                    },
                    {
                        "name": "results",
                        "in": "formData",
                        "description": "File to upload for Results",
                        "required": false,
                        "type": "file"
                    }
                ],
                "responses": {
                    "200": {
                        "description": "Successful response",
                        "schema": {
                            "title": "ArrayOfRequest",
                            "type": "array",
                            "items": {
                                "$ref": "#/definitions/requestreturn"
                            }
                        }
                    }
                } 
            }
        },
        "/api/1.0/requestSP/{requestID}": {
            "get": {
                "tags": [
                    "request"
                ],
                "description": "Get specific request base on requestID",
                "parameters": [
                    {
                        "name": "requestID",
                        "in": "path",
                        "type": "string",
                        "description": "ID of the Request",
                        "required": true
                    }
                ],
                "responses": {
                    "200": {
                        "description": "Successful response",
                        "schema": {
                            "title": "ArrayOfRequest",
                            "type": "array",
                            "items": {
                                "$ref": "#/definitions/requestreturn"
                            }
                        }
                    }
                }
            },
            "put": {
                "tags": [
                    "request"
                ],
                "description": "Update Request base on requestID",
                "parameters": [
                    {
                        "name": "requestID",
                        "in": "path",
                        "type": "string",
                        "description": "userID of the User Account",
                        "required": true
                    },
                    {
                        "name": "RequestBody",
                        "in": "body",
                        "description": "values to update,value of approve tag is YES or NO",
                        "schema": {
                            "$ref": "#/definitions/request"
                        },
                        "required": true
                    }
                ],
                "responses": {
                    "200": {
                        "description": "Successful response",
                        "schema": {
                            "title": "ArrayOfRequest",
                            "type": "array",
                            "items": {
                               "$ref": "#/definitions/requestreturn"
                           }
                        }
                    }
                }
            }
        },
        "/api/1.0/request/upload/{requestID}": {
            "put": {
                "tags": [
                    "request"
                ],
                "description": "uploading files for request",
                "parameters": [
                    {
                        "name": "requestID",
                        "in": "path",
                        "type": "string",
                        "description": "ID of the Request",
                        "required": true
                    },
                    {
                        "name": "test_sets",
                        "in": "formData",
                        "description": "File to upload for Test sets",
                        "required": false,
                        "type": "file"
                    },
                    {
                        "name": "images",
                        "in": "formData",
                        "description": "File to upload for Images",
                        "required": false,
                        "type": "file"
                    },
                    {
                        "name": "reading",
                        "in": "formData",
                        "description": "File to upload for Readings",
                        "required": false,
                        "type": "file"
                    },
                    {
                        "name": "results",
                        "in": "formData",
                        "description": "File to upload for Results",
                        "required": false,
                        "type": "file"
                    }
                ],
                "responses": {
                    "200": {
                        "description": "Successful response",
                        "schema": {
                            "title": "ArrayOfRequest",
                            "type": "array",
                            "items": {
                                "$ref": "#/definitions/requestreturn"
                            }
                        }
                    }
                }
            }
        },
        "/api/1.0/request/uploadmore/{requestID}": {
            "put": {
                "tags": [
                    "request"
                ],
                "description": "uploading more files for request",
                "parameters": [
                    {
                        "name": "requestID",
                        "in": "path",
                        "type": "string",
                        "description": "ID of the Request",
                        "required": true
                    },
                    {
                        "name": "test_sets",
                        "in": "formData",
                        "description": "File to upload for Test sets",
                        "required": false,
                        "type": "file"
                    },
                    {
                        "name": "images",
                        "in": "formData",
                        "description": "File to upload for Images",
                        "required": false,
                        "type": "file"
                    },
                    {
                        "name": "reading",
                        "in": "formData",
                        "description": "File to upload for Readings",
                        "required": false,
                        "type": "file"
                    },
                    {
                        "name": "results",
                        "in": "formData",
                        "description": "File to upload for Results",
                        "required": false,
                        "type": "file"
                    }
                ],
                "responses": {
                    "200": {
                        "description": "Successful response",
                        "schema": {
                            "title": "ArrayOfRequest",
                            "type": "array",
                            "items": {
                                "$ref": "#/definitions/requestreturn"
                            }
                        }
                    }
                }
            }
        },
        "/api/1.0/request_status/{approve_tag}": {
            "get": {
                "tags": [
                    "request"
                ],
                "description": "get all list of request with approve_tag YES or NO",
                "parameters": [
                    {
                        "name": "approve_tag",
                        "in": "path",
                        "type": "string",
                        "description": "Approve_tag status of the request either YES or NO",
                        "required": true
                    }
                ],
                "responses": {
                    "200": {
                        "description": "Successful response",
                        "schema": {
                            "title": "ArrayOfRequest",
                            "type": "array",
                            "items": {
                                "$ref": "#/definitions/requestview"
                            }
                        }
                    }
                }
            }
        }
    },
    "definitions": {
        "login": {
            "properties": {
                "username": {
                    "type": "string"
                },
                "password": {
                    "type": "string"
                }
            }
        },
        "user": {
            "properties": {
                "_id": {
                    "type": "string"
                },
                "u_lname": {
                    "type": "string"
                },
                "u_fname": {
                    "type": "string"
                },
                "organization": {
                    "type": "string"
                },
                "roleID": {
                    "$ref": "#/definitions/roleID"
                },
                "stateID": {
                    "$ref": "#/definitions/stateID"
                },
                "countryID": {
                    "$ref": "#/definitions/countryID"
                },
                "locationID": {
                    "$ref": "#/definitions/locationID"
                },
                "userID": {
                    "$ref": "#/definitions/userID"
                },  
                "u_image": {
                    "$ref": "#/definitions/items"
                }
            }
        },
        "userpost": {
            "properties": {
                "u_lname": {
                    "type": "string"
                },
                "u_fname": {
                    "type": "string"
                },
                "u_email": {
                    "type": "string"
                },
                "u_password": {
                    "type": "string"
                },
                "organization": {
                    "type": "string"
                },
                "roleID": {
                    "type": "string"
                },
                "stateID": {
                    "type": "string"
                },
                "countryID": {
                    "type": "string"
                },
                "locationID": {
                    "type": "string"
                }
            }
        },
        "roleID": {
            "type": "object",
            "properties": {
                "_id": {
                    "type": "string"
                },
                "RoleDesc": {
                    "type": "string"
                },
                "Read": {
                    "type": "integer"
                },
                "Write": {
                    "type": "integer"
                },
                "Delete": {
                    "type": "integer"
                }
            }
        },
        "stateID": {
            "type": "object",
            "properties": {
                "_id": {
                    "type": "string"
                },
                "s_name": {
                    "type": "string"
                },
                "s_code": {
                    "type": "integer"
                },
                "countryID": {
                    "type": "string"
                }
            }
        },
        "countryID": {
            "type": "object",
            "properties": {
                "_id": {
                    "type": "string"
                },
                "c_name": {
                    "type": "string"
                },
                "c_Desc": {
                    "type": "string"
                }
            }
        },
        "locationID": {
            "type": "object",
            "properties": {
                "_id": {
                    "type": "string"
                },
                "location_name": {
                    "type": "string"
                },
                "countryID": {
                    "type": "string"
                },
                "stateID": {
                    "type": "string"
                }
            }
        },
        "userID": {
            "type": "object",
            "properties": {
                "_id": {
                    "type": "string"
                },
                "u_email": {
                    "type": "string"
                },
                "u_isverified": {
                    "type": "integer"
                }
            }
        },
        "country": {
            "properties": {
                "c_name": {
                    "type": "string"
                },
                "c_Desc": {
                    "type": "string"
                }
            }
        },
        "countrypost": {
            "properties": {
                "_id": {
                    "type": "string"
                },
                "c_name": {
                    "type": "string"
                },
                "c_Desc": {
                    "type": "string"
                }
            }
        },
        "state": {
            "properties": {
                "s_name": {
                    "type": "string"
                },
                "s_code": {
                    "type": "string"
                }
            }
        },
        "statepost": {
            "properties": {
                "_id": {
                    "type": "string"
                },
                "s_name": {
                    "type": "string"
                },
                "s_code": {
                    "type": "string"
                },
                "countryID": {
                    "type": "string"
                }
            }
        },
        "location": {
            "properties": {
                "location_name": {
                    "type": "string"
                }
            }
        },
        "locationpost": {
            "properties": {
                "_id": {
                    "type": "string"
                },
                "location_name": {
                    "type": "string"
                },
                "countryID": {
                    "type": "string"
                },
                "stateID": {
                    "type": "string"
                }
            }
        },
        "addressview": {
            "properties": {
                "_id": {
                    "type": "string"
                },
                "location_name": {
                    "type": "string"
                },
                "countryID": {
                    "$ref": "#/definitions/countryID"
                },
                "stateID": {
                    "$ref": "#/definitions/stateID"
                }
            }
        },
        "page": {
            "properties": {
            "name": {
                "type": "string"
                }
            }
        },
        "logtrantype": {
            "properties": {
            "desc": {
                "type": "string"
                }
            }
        },
        "pagepost": {
            "properties": {
            "_id": {
                "type": "string"
            },    
            "name": {
                "type": "string"
                }
            }
        },
        "logtrantypepost": {
            "properties": {
            "_id": {
                "type": "string"
            }, 
            "desc": {
                "type": "string"
                }
            }
        },
        "logs": {
            "properties": {
                "page": {
                    "type": "array",
                    "items": {
                        "$ref": "#/definitions/page"
                    }
                },
                "logTranType": {
                    "type": "array",
                    "items": {
                       "$ref": "#/definitions/logtrantype"
                    }
                }
            }
        },
        "logspost": {
            "properties": {
                "_id": {
                    "type":"string"
                },
                "page": {
                    "type": "array",
                    "items": {
                        "$ref": "#/definitions/pagepost"
                    }
                },
                "logTranType": {
                    "type": "array",
                    "items": {
                       "$ref": "#/definitions/logtrantypepost"
                    }
                },
                "userID": {
                    "type": "string"
                },
                "userprofileID": {
                    "type": "string"
                },
                "DateTran": {
                    "type":"string"
                }
            }
        },
        "logspostview": {
            "properties": {
                "_id": {
                    "type":"string"
                },
                "userprofileID": {
                    "$ref": "#/definitions/userprofilelog"
                },
                "userID": {
                    "type":"string"
                    },
                "page": {
                    "type": "array",
                    "items": {
                        "$ref": "#/definitions/pagepost"
                    }
                },
                "logTranType": {
                    "type": "array",
                    "items": {
                       "$ref": "#/definitions/logtrantypepost"
                    }
                },
                "DateTran": {
                    "type":"string"
                }
            }
        },
        "requestview": {
            "properties": {
                "_id": {
                    "type":"string"
                },
                "purpose": {
                    "type":"string"
                },
                "filters": {
                    "type":"string"
                },
                "userprofileID": {
                    "$ref": "#/definitions/userprofilelog"
                },
                "userID": {
                   "$ref": "#/definitions/userID"
                },
                "countryID": {
                    "$ref": "#/definitions/countryID"
                    
                },
                "locationID": {
                    "$ref": "#/definitions/locationID"
                },
                "stateID": {
                    "$ref": "#/definitions/stateID"
                },
                "approve_tag": {
                    "type":"string"
                },
                "results":{
                    "type": "array",
                    "items":{
                        "$ref": "#/definitions/filespostresult"
                    }
                },
                "images":{
                    "type": "array",
                    "items":{
                        "$ref": "#/definitions/filespostimages"
                    }
                },
                "reading":{
                    "type": "array",
                    "items":{
                        "$ref": "#/definitions/filespostreadings"
                    }
                },
                "test_sets":{
                    "type": "array",
                    "items":{
                        "$ref": "#/definitions/filesposttest_sets"
                    }
                },
                "date_request":{
                    "type": "string"
                    
                }
            }
        },
         "requestreturn": {
            "properties": {
                "_id": {
                    "type":"string"
                },
                "purpose": {
                    "type":"string"
                },
                "filters": {
                    "type":"string"
                },
                "valid_until": {
                    "type":"string"
                },
                "userprofileID": {
                    "type":"string"
                },
                "userID": {
                   "type":"string"
                },
                "countryID": {
                    "type":"string"
                    
                },
                "locationID": {
                    "type":"string"
                },
                "stateID": {
                    "type":"string"
                },
                "approve_tag": {
                    "type":"string"
                },
                "results":{
                    "type": "array",
                    "items":{
                        "$ref": "#/definitions/filespostresult"
                    }
                },
                "images":{
                    "type": "array",
                    "items":{
                        "$ref": "#/definitions/filespostimages"
                    }
                },
                "reading":{
                    "type": "array",
                    "items":{
                        "$ref": "#/definitions/filespostreadings"
                    }
                },
                "test_sets":{
                    "type": "array",
                    "items":{
                        "$ref": "#/definitions/filesposttest_sets"
                    }
                },
                "date_request":{
                    "type": "string"
                    
                }
            }
        },
        "filespostresult": {
            "properties": {
                "file_name": {
                    "type": "string"
                },
                "file_type": {
                    "type": "string"
                },
                "url": {
                    "type": "string"
                },
                "file_size": {
                    "type": "integer"
                }
            }
        },
        "filespostimages": {
            "properties": {
                "file_name": {
                    "type": "string"
                },
                "file_type": {
                    "type": "string"
                },
                "url": {
                    "type": "string"
                },
                "file_size": {
                    "type": "integer"
                }
            }
        },
        "filespostreadings": {
            "properties": {
                "file_name": {
                    "type": "string"
                },
                "file_type": {
                    "type": "string"
                },
                "url": {
                    "type": "string"
                },
                "file_size": {
                    "type": "integer"
                }
            }
        },
        "filesposttest_sets": {
            "properties": {
                "file_name": {
                    "type": "string"
                },
                "file_type": {
                    "type": "string"
                },
                "url": {
                    "type": "string"
                },
                "file_size": {
                    "type": "integer"
                }
            }
        },
        "userprofilelog": {
            "properties": {
                "_id": {
                    "type": "string"
                },
                "u_lname": {
                    "type": "string"
                },
                "u_fname": {
                    "type": "string"
                },
                "u_image": {
                    "$ref": "#/definitions/items"
                }
            }
        },
        "roles": {
            "properties": {
                "RoleDesc": {
                    "type": "string"
                },
                "Read": {
                    "type": "integer"
                },
                "Write": {
                    "type": "integer"
                },
                "Delete": {
                    "type": "integer"
                }
            }
        },
        "rolespost": {
            "properties": {
                "_id": {
                    "type": "string"
                },
                "RoleDesc": {
                    "type": "string"
                },
                "Read": {
                    "type": "integer"
                },
                "Write": {
                    "type": "integer"
                },
                "Delete": {
                    "type": "integer"
                }
            }
        },
        "request": {
            "properties": {
                "purpose": {
                    "type": "string"
                },
                "approve_tag":{
                    "type": "string"
                },
                "approve_date": {
                    "type": "string"
                },
                "valid_until": {
                    "type": "string"
                },
                "filters": {
                    "type": "string"
                }
            }
        },
        "items": {
            "type": "object",
            "properties": {
                "file_name": {
                    "type": "string"
                },
                "file_type": {
                    "type": "string"
                },
                "url": {
                    "type": "string"
                },
                "file_size": {
                    "type": "integer"
                }
            }
        }
    }
}